大一下/网安数字逻辑与数字系统/Code/2.1/simulation/qsim/bupt.msim.vcd
$comment
	File created using the following command:
		vcd file bupt.msim.vcd -direction
$end
$date
	Fri Jun 07 14:14:59 2024
$end
$version
	ModelSim Version 10.1d
$end
$timescale
	1ps
$end
$scope module Encoder8421toGray_vlg_vec_tst $end
$var reg 4 ! z [3:0] $end
$var wire 1 " f [3] $end
$var wire 1 # f [2] $end
$var wire 1 $ f [1] $end
$var wire 1 % f [0] $end
$var wire 1 & sampler $end
$scope module i1 $end
$var wire 1 ' gnd $end
$var wire 1 ( vcc $end
$var wire 1 ) unknown $end
$var tri1 1 * devclrn $end
$var tri1 1 + devpor $end
$var tri1 1 , devoe $end
$var wire 1 - ~QUARTUS_CREATED_GND~I_combout $end
$var wire 1 . z[1]~input_o $end
$var wire 1 / z[0]~input_o $end
$var wire 1 0 temp~0_combout $end
$var wire 1 1 z[2]~input_o $end
$var wire 1 2 temp~1_combout $end
$var wire 1 3 z[3]~input_o $end
$var wire 1 4 temp~2_combout $end
$upscope $end
$upscope $end
$enddefinitions $end
#0
$dumpvars
b100 !
0%
1$
1#
0"
x&
0'
1(
x)
1*
1+
1,
0-
0.
0/
00
11
12
03
14
$end
#10000
b1100 !
0&
13
1"
04
0#
#20000
b100 !
1&
03
0"
14
1#
#30000
b0 !
b1000 !
01
0&
13
1"
02
0$
#40000
b1010 !
b1011 !
b11 !
1/
1.
1&
03
0"
12
04
1$
0#
#50000
b10 !
b1010 !
0/
0&
13
1"
10
14
1%
1#
#60000
b1110 !
b110 !
11
1&
03
0"
02
0$
#70000
b1110 !
0&
13
1"
04
0#
#80000
b1100 !
b1000 !
b0 !
0.
01
1&
03
0"
00
0%
#90000
b1 !
b1001 !
1/
0&
13
1"
10
14
1%
1#
#100000
b1000 !
0/
1&
00
0%
#110000
b1010 !
b10 !
1.
0&
03
0"
10
12
04
1%
1$
0#
#120000
b110 !
b111 !
b101 !
b1101 !
1/
0.
11
1&
13
1"
#130000
b101 !
0&
03
0"
14
1#
#140000
b1 !
01
1&
02
04
0$
0#
#150000
b0 !
0/
0&
00
0%
#160000
b1000 !
b1100 !
11
1&
13
1"
12
1$
#170000
b1110 !
b1111 !
b111 !
b11 !
1/
1.
01
0&
03
0"
#180000
b1 !
b101 !
0.
11
1&
10
14
1%
1#
#190000
b100 !
b110 !
0/
1.
0&
02
0$
#200000
b1110 !
b1100 !
0.
1&
13
1"
00
12
04
0%
1$
0#
#210000
b1000 !
b1001 !
b1011 !
1/
1.
01
0&
14
1#
#220000
b1111 !
11
1&
02
04
0$
0#
#230000
b1101 !
0.
0&
10
12
1%
1$
#240000
b101 !
b100 !
b0 !
0/
01
1&
03
0"
00
02
0%
0$
