大一下/网安数字逻辑与数字系统/Code/1.3/simulation/qsim/bupt.msim.vcd
$comment
	File created using the following command:
		vcd file bupt.msim.vcd -direction
$end
$date
	Sun Jun 02 10:49:14 2024
$end
$version
	ModelSim Version 10.1d
$end
$timescale
	1ps
$end
$scope module Register8_vlg_vec_tst $end
$var reg 1 ! CLK $end
$var reg 8 " D [7:0] $end
$var reg 1 # OE $end
$var wire 1 $ Q [7] $end
$var wire 1 % Q [6] $end
$var wire 1 & Q [5] $end
$var wire 1 ' Q [4] $end
$var wire 1 ( Q [3] $end
$var wire 1 ) Q [2] $end
$var wire 1 * Q [1] $end
$var wire 1 + Q [0] $end
$var wire 1 , sampler $end
$scope module i1 $end
$var wire 1 - gnd $end
$var wire 1 . vcc $end
$var wire 1 / unknown $end
$var tri1 1 0 devclrn $end
$var tri1 1 1 devpor $end
$var tri1 1 2 devoe $end
$var wire 1 3 CLK~input_o $end
$var wire 1 4 ~QUARTUS_CREATED_GND~I_combout $end
$var wire 1 5 CLK~inputCLKENA0_outclk $end
$var wire 1 6 D[0]~input_o $end
$var wire 1 7 temp[0]~feeder_combout $end
$var wire 1 8 temp[0]~enfeeder_combout $end
$var wire 1 9 OE~input_o $end
$var wire 1 : temp[0]~en_q $end
$var wire 1 ; D[1]~input_o $end
$var wire 1 < temp[1]~feeder_combout $end
$var wire 1 = temp[1]~enfeeder_combout $end
$var wire 1 > temp[1]~en_q $end
$var wire 1 ? D[2]~input_o $end
$var wire 1 @ temp[2]~feeder_combout $end
$var wire 1 A temp[2]~enfeeder_combout $end
$var wire 1 B temp[2]~en_q $end
$var wire 1 C D[3]~input_o $end
$var wire 1 D temp[3]~feeder_combout $end
$var wire 1 E temp[3]~enfeeder_combout $end
$var wire 1 F temp[3]~en_q $end
$var wire 1 G D[4]~input_o $end
$var wire 1 H temp[4]~feeder_combout $end
$var wire 1 I temp[4]~enfeeder_combout $end
$var wire 1 J temp[4]~en_q $end
$var wire 1 K D[5]~input_o $end
$var wire 1 L temp[5]~enfeeder_combout $end
$var wire 1 M temp[5]~en_q $end
$var wire 1 N D[6]~input_o $end
$var wire 1 O temp[6]~enfeeder_combout $end
$var wire 1 P temp[6]~en_q $end
$var wire 1 Q D[7]~input_o $end
$var wire 1 R temp[7]~feeder_combout $end
$var wire 1 S temp[7]~enfeeder_combout $end
$var wire 1 T temp[7]~en_q $end
$var wire 1 U temp [7] $end
$var wire 1 V temp [6] $end
$var wire 1 W temp [5] $end
$var wire 1 X temp [4] $end
$var wire 1 Y temp [3] $end
$var wire 1 Z temp [2] $end
$var wire 1 [ temp [1] $end
$var wire 1 \ temp [0] $end
$upscope $end
$upscope $end
$enddefinitions $end
#0
$dumpvars
0!
b100000 "
0#
z+
z*
z)
z(
z'
z&
z%
z$
x,
0-
1.
x/
10
11
12
03
04
05
06
07
18
09
0:
0;
0<
1=
0>
0?
0@
1A
0B
0C
0D
1E
0F
0G
0H
1I
0J
1K
1L
0M
0N
1O
0P
0Q
0R
1S
0T
0\
0[
0Z
0Y
0X
0W
0V
0U
$end
#5000
1!
13
15
0,
1T
1P
1M
1W
1J
1F
1B
1>
1:
0$
0%
1&
0'
0(
0)
0*
0+
#10000
0!
03
05
1,
#15000
1!
13
15
0,
#20000
b1100000 "
b1000000 "
b1001000 "
0!
1C
0K
1N
03
05
1,
1D
#25000
1!
13
15
0,
1V
0W
1Y
1%
0&
1(
#30000
b11001000 "
b11001100 "
b11001110 "
b11001111 "
b10001111 "
b10000111 "
0!
16
1;
1?
0C
0N
1Q
03
05
1,
17
1<
1@
0D
1R
#35000
1!
13
15
0,
1U
0V
0Y
1Z
1[
1\
1$
0%
0(
1)
1*
1+
#40000
b10000011 "
b10000001 "
b10000000 "
b10001000 "
0!
06
0;
0?
1C
03
05
1,
07
0<
0@
1D
#45000
1!
13
15
0,
1Y
0Z
0[
0\
1(
0)
0*
0+
#50000
b10101000 "
b101000 "
b100000 "
0!
0C
1K
0Q
03
05
1,
0D
0R
#55000
1#
1!
19
13
15
0,
0U
1W
0Y
0:
0>
0B
0F
0J
0M
0P
0T
z$
z&
z(
z+
z*
z)
z'
z%
#60000
b110000 "
b1110000 "
b1110100 "
b1111100 "
0#
0!
1?
1C
1G
1N
09
03
05
1,
1@
1D
1H
#65000
1!
13
15
0,
1T
1P
1V
1M
1J
1X
1F
1Y
1B
1Z
1>
1:
0$
1%
1&
1'
1(
1)
0*
0+
#70000
b1111101 "
0!
16
03
05
1,
17
#75000
1!
13
15
0,
1\
1+
#80000
b1011101 "
b1001101 "
b1101 "
b1001 "
b1 "
b0 "
0!
06
0?
0C
0G
0K
0N
03
05
1,
07
0@
0D
0H
#85000
1!
13
15
0,
0V
0W
0X
0Y
0Z
0\
0%
0&
0'
0(
0)
0+
#90000
0!
03
05
1,
#95000
1!
13
15
0,
#100000
0!
03
05
1,
#105000
1!
13
15
0,
#110000
0!
03
05
1,
#115000
1!
13
15
0,
#120000
0!
03
05
1,
#125000
1!
13
15
0,
#130000
0!
03
05
1,
#135000
1!
13
15
0,
#140000
0!
03
05
1,
#145000
1!
13
15
0,
#150000
0!
03
05
1,
#155000
1!
13
15
0,
#160000
0!
03
05
1,
#165000
1!
13
15
0,
#170000
0!
03
05
1,
#175000
1!
13
15
0,
#180000
0!
03
05
1,
#185000
1!
13
15
0,
#190000
0!
03
05
1,
#195000
1!
13
15
0,
#200000
0!
03
05
1,
#205000
1!
13
15
0,
#210000
0!
03
05
1,
#215000
1!
13
15
0,
#220000
0!
03
05
1,
#225000
1!
13
15
0,
#230000
0!
03
05
1,
#235000
1!
13
15
0,
#240000
0!
03
05
1,
#245000
1!
13
15
0,
#250000
0!
03
05
1,
#255000
1!
13
15
0,
#260000
0!
03
05
1,
#265000
1!
13
15
0,
#270000
0!
03
05
1,
#275000
1!
13
15
0,
#280000
0!
03
05
1,
#285000
1!
13
15
0,
#290000
0!
03
05
1,
#295000
1!
13
15
0,
#300000
0!
03
05
1,
#305000
1!
13
15
0,
#310000
0!
03
05
1,
#315000
1!
13
15
0,
#320000
0!
03
05
1,
#325000
1!
13
15
0,
#330000
0!
03
05
1,
#335000
1!
13
15
0,
#340000
0!
03
05
1,
#345000
1!
13
15
0,
#350000
0!
03
05
1,
#355000
1!
13
15
0,
#360000
0!
03
05
1,
#365000
1!
13
15
0,
#370000
0!
03
05
1,
#375000
1!
13
15
0,
#380000
0!
03
05
1,
#385000
1!
13
15
0,
#390000
0!
03
05
1,
#395000
1!
13
15
0,
#400000
0!
03
05
1,
#405000
1!
13
15
0,
#410000
0!
03
05
1,
#415000
1!
13
15
0,
#420000
0!
03
05
1,
#425000
1!
13
15
0,
#430000
0!
03
05
1,
#435000
1!
13
15
0,
#440000
0!
03
05
1,
#445000
1!
13
15
0,
#450000
0!
03
05
1,
#455000
1!
13
15
0,
#460000
0!
03
05
1,
#465000
1!
13
15
0,
#470000
0!
03
05
1,
#475000
1!
13
15
0,
#480000
0!
03
05
1,
#485000
1!
13
15
0,
#490000
0!
03
05
1,
#495000
1!
13
15
0,
#500000
0!
03
05
1,
#505000
1!
13
15
0,
#510000
0!
03
05
1,
#515000
1!
13
15
0,
#520000
0!
03
05
1,
#525000
1!
13
15
0,
#530000
0!
03
05
1,
#535000
1!
13
15
0,
#540000
0!
03
05
1,
#545000
1!
13
15
0,
#550000
0!
03
05
1,
#555000
1!
13
15
0,
#560000
0!
03
05
1,
#565000
1!
13
15
0,
#570000
0!
03
05
1,
#575000
1!
13
15
0,
#580000
0!
03
05
1,
#585000
1!
13
15
0,
#590000
0!
03
05
1,
#595000
1!
13
15
0,
#600000
0!
03
05
1,
#605000
1!
13
15
0,
#610000
0!
03
05
1,
#615000
1!
13
15
0,
#620000
0!
03
05
1,
#625000
1!
13
15
0,
#630000
0!
03
05
1,
#635000
1!
13
15
0,
#640000
0!
03
05
1,
#645000
1!
13
15
0,
#650000
0!
03
05
1,
#655000
1!
13
15
0,
#660000
0!
03
05
1,
#665000
1!
13
15
0,
#670000
0!
03
05
1,
#675000
1!
13
15
0,
#680000
0!
03
05
1,
#685000
1!
13
15
0,
#690000
0!
03
05
1,
#695000
1!
13
15
0,
#700000
0!
03
05
1,
#705000
1!
13
15
0,
#710000
0!
03
05
1,
#715000
1!
13
15
0,
#720000
0!
03
05
1,
#725000
1!
13
15
0,
#730000
0!
03
05
1,
#735000
1!
13
15
0,
#740000
0!
03
05
1,
#745000
1!
13
15
0,
#750000
0!
03
05
1,
#755000
1!
13
15
0,
#760000
0!
03
05
1,
#765000
1!
13
15
0,
#770000
0!
03
05
1,
#775000
1!
13
15
0,
#780000
0!
03
05
1,
#785000
1!
13
15
0,
#790000
0!
03
05
1,
#795000
1!
13
15
0,
#800000
0!
03
05
1,
#805000
1!
13
15
0,
#810000
0!
03
05
1,
#815000
1!
13
15
0,
#820000
0!
03
05
1,
#825000
1!
13
15
0,
#830000
0!
03
05
1,
#835000
1!
13
15
0,
#840000
0!
03
05
1,
#845000
1!
13
15
0,
#850000
0!
03
05
1,
#855000
1!
13
15
0,
#860000
0!
03
05
1,
#865000
1!
13
15
0,
#870000
0!
03
05
1,
#875000
1!
13
15
0,
#880000
0!
03
05
1,
#885000
1!
13
15
0,
#890000
0!
03
05
1,
#895000
1!
13
15
0,
#900000
0!
03
05
1,
#905000
1!
13
15
0,
#910000
0!
03
05
1,
#915000
1!
13
15
0,
#920000
0!
03
05
1,
#925000
1!
13
15
0,
#930000
0!
03
05
1,
#935000
1!
13
15
0,
#940000
0!
03
05
1,
#945000
1!
13
15
0,
#950000
0!
03
05
1,
#955000
1!
13
15
0,
#960000
0!
03
05
1,
#965000
1!
13
15
0,
#970000
0!
03
05
1,
#975000
1!
13
15
0,
#980000
0!
03
05
1,
#985000
1!
13
15
0,
#990000
0!
03
05
1,
#995000
1!
13
15
0,
