大一下/网安数字逻辑与数字系统/Code/2.2/simulation/qsim/bupt.msim.vcd
$comment
	File created using the following command:
		vcd file bupt.msim.vcd -direction
$end
$date
	Sun Jun 02 11:39:25 2024
$end
$version
	ModelSim Version 10.1d
$end
$timescale
	1ps
$end
$scope module compare4_vlg_vec_tst $end
$var reg 4 ! A [3:0] $end
$var reg 4 " B [3:0] $end
$var wire 1 # YA $end
$var wire 1 $ YB $end
$var wire 1 % YC $end
$var wire 1 & sampler $end
$scope module i1 $end
$var wire 1 ' gnd $end
$var wire 1 ( vcc $end
$var wire 1 ) unknown $end
$var tri1 1 * devclrn $end
$var tri1 1 + devpor $end
$var tri1 1 , devoe $end
$var wire 1 - B[0]~input_o $end
$var wire 1 . ~QUARTUS_CREATED_GND~I_combout $end
$var wire 1 / B[2]~input_o $end
$var wire 1 0 A[2]~input_o $end
$var wire 1 1 A[0]~input_o $end
$var wire 1 2 B[1]~input_o $end
$var wire 1 3 A[1]~input_o $end
$var wire 1 4 LessThan0~0_combout $end
$var wire 1 5 A[3]~input_o $end
$var wire 1 6 B[3]~input_o $end
$var wire 1 7 LessThan0~1_combout $end
$var wire 1 8 LessThan1~0_combout $end
$var wire 1 9 YB~0_combout $end
$var wire 1 : YC~0_combout $end
$upscope $end
$upscope $end
$enddefinitions $end
#0
$dumpvars
b1111 !
b1 "
1#
0$
0%
x&
0'
1(
x)
1*
1+
1,
1-
0.
0/
10
11
02
13
14
15
06
17
08
09
1:
$end
#10000
b111 !
b1001 "
b1101 "
1/
16
05
0&
07
19
0#
1$
#20000
b101 !
b1100 "
b100 "
0-
06
03
1&
17
09
1#
0$
#30000
b1 !
b0 !
b110 "
b10 "
b11 "
1-
12
0/
01
00
0&
04
18
07
19
0#
1$
#40000
b1000 !
b1010 !
b1011 "
b1111 "
1/
16
13
15
1&
#50000
b1110 !
b1111 !
b111 !
b111 "
06
11
10
05
0&
08
0:
09
1%
0$
#60000
b101 "
b101 !
b1 "
b100 !
b1100 !
01
03
15
02
0/
1&
18
1:
17
0%
1#
#70000
b1000 !
b11 "
b1010 !
12
13
00
0&
#80000
b10 "
b1110 !
b0 "
10
0-
02
1&
14
08
#90000
b1000 "
b1111 !
b1101 !
b1001 "
b1001 !
b1011 "
11
03
00
1-
12
16
0&
04
18
07
19
0#
1$
#100000
b1111 "
b1 !
b111 "
b101 !
b101 "
10
05
02
1/
06
1&
08
0:
09
1%
0$
#110000
b100 !
b100 "
b0 "
b1100 !
b1000 "
b1000 !
0-
0/
16
01
00
15
0&
#120000
b1001 !
b1001 "
b1101 "
b1101 !
1-
1/
11
10
1&
#130000
b1111 !
b1111 "
b1110 !
b1110 "
0-
12
01
13
0&
#140000
b1010 "
b1010 !
b1011 !
b1011 "
11
00
1-
0/
1&
#150000
b1001 !
b1001 "
b1101 "
b1101 !
b1100 !
b1100 "
0-
02
1/
01
03
10
0&
#160000
b100 !
b100 "
b101 !
b101 "
1-
06
11
05
1&
#170000
b1101 !
b1101 "
16
15
0&
#180000
b1111 !
b1111 "
b111 !
b111 "
12
06
13
05
1&
#190000
b11 "
b11 !
b10 !
b10 "
01
00
0-
0/
0&
#200000
b0 !
b0 "
b1000 !
b1000 "
b1100 "
b1100 !
02
1/
16
03
10
15
1&
#210000
b1110 !
b1110 "
b1010 "
b1010 !
12
0/
13
00
0&
#220000
b10 !
b10 "
b110 "
b110 !
1/
06
10
05
1&
#230000
b1110 !
b1110 "
b1010 "
b1010 !
0/
16
00
15
0&
#240000
b1011 !
b1011 "
b1001 !
b1001 "
b1101 "
b1101 !
1-
02
1/
11
03
10
1&
#250000
b101 !
b101 "
b100 !
b100 "
b0 "
b0 !
0-
0/
06
01
00
05
0&
