大一下/网安数字逻辑与数字系统/Code/1.1/simulation/qsim/bupt.msim.vcd
$comment
	File created using the following command:
		vcd file bupt.msim.vcd -direction
$end
$date
	Fri Jun 07 14:11:39 2024
$end
$version
	ModelSim Version 10.1d
$end
$timescale
	1ps
$end
$scope module String_Detector_vlg_vec_tst $end
$var reg 1 ! clock $end
$var reg 1 " reset $end
$var reg 1 # z $end
$var wire 1 $ f $end
$var wire 1 % sampler $end
$scope module i1 $end
$var wire 1 & gnd $end
$var wire 1 ' vcc $end
$var wire 1 ( unknown $end
$var tri1 1 ) devclrn $end
$var tri1 1 * devpor $end
$var tri1 1 + devoe $end
$var wire 1 , z~input_o $end
$var wire 1 - clock~input_o $end
$var wire 1 . ~QUARTUS_CREATED_GND~I_combout $end
$var wire 1 / clock~inputCLKENA0_outclk $end
$var wire 1 0 Selector0~0_combout $end
$var wire 1 1 reset~input_o $end
$var wire 1 2 pr_state.s0~q $end
$var wire 1 3 nx_state.s1~0_combout $end
$var wire 1 4 pr_state.s1~q $end
$var wire 1 5 nx_state.s2~0_combout $end
$var wire 1 6 pr_state.s2~q $end
$var wire 1 7 nx_state.s3~0_combout $end
$var wire 1 8 pr_state.s3~q $end
$var wire 1 9 nx_state.s4~0_combout $end
$var wire 1 : pr_state.s4~q $end
$var wire 1 ; nx_state.s5~0_combout $end
$var wire 1 < pr_state.s5~q $end
$var wire 1 = nx_state.s6~0_combout $end
$var wire 1 > pr_state.s6~q $end
$var wire 1 ? nx_state.s7~0_combout $end
$var wire 1 @ pr_state.s7~q $end
$upscope $end
$upscope $end
$enddefinitions $end
#0
$dumpvars
0!
0"
0#
0$
x%
0&
1'
x(
1)
1*
1+
0,
0-
0.
0/
00
01
02
03
04
05
06
07
08
09
0:
0;
0<
0=
0>
0?
0@
$end
#5000
1!
1-
1/
0%
#10000
0!
0-
0/
1%
#15000
1!
1-
1/
0%
#20000
1#
0!
1,
0-
0/
1%
10
13
#25000
1!
1-
1/
0%
14
12
15
03
#30000
0!
0-
0/
1%
#35000
1!
1-
1/
0%
16
04
17
05
#40000
0!
0-
0/
1%
#45000
1!
1-
1/
0%
18
06
#50000
0!
0-
0/
1%
#55000
1!
1-
1/
0%
#60000
0#
0!
0,
0-
0/
1%
07
19
#65000
1!
1-
1/
0%
1:
08
1;
09
#70000
0!
0-
0/
1%
#75000
1!
1-
1/
0%
1<
0:
00
0;
#80000
0!
0-
0/
1%
#85000
1!
1-
1/
0%
0<
02
#90000
1#
0!
1,
0-
0/
1%
10
13
#95000
1!
1-
1/
0%
14
12
15
03
#100000
0!
0-
0/
1%
#105000
1!
1-
1/
0%
16
04
17
05
#110000
0!
0-
0/
1%
#115000
1!
1-
1/
0%
18
06
#120000
0#
0!
0,
0-
0/
1%
07
19
#125000
1!
1-
1/
0%
1:
08
1;
09
#130000
0!
0-
0/
1%
#135000
1!
1-
1/
0%
1<
0:
00
0;
#140000
1#
0!
1,
0-
0/
1%
10
1=
#145000
1!
1-
1/
0%
1>
0<
15
0=
#150000
0#
0!
0,
0-
0/
1%
05
1?
#155000
1!
1-
1/
0%
0>
1@
00
0?
1$
#160000
1#
0!
1,
0-
0/
1%
10
13
#165000
1!
1-
1/
0%
14
0@
15
03
0$
#170000
0!
0-
0/
1%
#175000
1!
1-
1/
0%
16
04
17
05
#180000
0!
0-
0/
1%
#185000
1!
1-
1/
0%
18
06
#190000
0#
0!
0,
0-
0/
1%
07
19
#195000
1!
1-
1/
0%
1:
08
1;
09
#200000
0!
0-
0/
1%
#205000
1!
1-
1/
0%
1<
0:
00
0;
#210000
1#
0!
1,
0-
0/
1%
10
1=
#215000
1!
1-
1/
0%
1>
0<
15
0=
#220000
1"
0#
0!
11
0,
0-
0/
1%
05
1?
02
0>
00
0?
#225000
1!
1-
1/
0%
#230000
0"
0!
01
0-
0/
1%
#235000
1!
1-
1/
0%
#240000
0!
0-
0/
1%
#245000
1!
1-
1/
0%
#250000
0!
0-
0/
1%
#255000
1!
1-
1/
0%
#260000
0!
0-
0/
1%
#265000
1!
1-
1/
0%
#270000
0!
0-
0/
1%
#275000
1!
1-
1/
0%
#280000
0!
0-
0/
1%
#285000
1!
1-
1/
0%
#290000
0!
0-
0/
1%
#295000
1!
1-
1/
0%
#300000
0!
0-
0/
1%
#305000
1!
1-
1/
0%
#310000
0!
0-
0/
1%
#315000
1!
1-
1/
0%
#320000
0!
0-
0/
1%
#325000
1!
1-
1/
0%
#330000
0!
0-
0/
1%
#335000
1!
1-
1/
0%
#340000
0!
0-
0/
1%
#345000
1!
1-
1/
0%
#350000
0!
0-
0/
1%
#355000
1!
1-
1/
0%
#360000
0!
0-
0/
1%
#365000
1!
1-
1/
0%
#370000
0!
0-
0/
1%
#375000
1!
1-
1/
0%
#380000
0!
0-
0/
1%
#385000
1!
1-
1/
0%
#390000
0!
0-
0/
1%
#395000
1!
1-
1/
0%
#400000
0!
0-
0/
1%
#405000
1!
1-
1/
0%
#410000
0!
0-
0/
1%
#415000
1!
1-
1/
0%
#420000
0!
0-
0/
1%
#425000
1!
1-
1/
0%
#430000
0!
0-
0/
1%
#435000
1!
1-
1/
0%
#440000
0!
0-
0/
1%
#445000
1!
1-
1/
0%
#450000
0!
0-
0/
1%
#455000
1!
1-
1/
0%
#460000
0!
0-
0/
1%
#465000
1!
1-
1/
0%
#470000
0!
0-
0/
1%
#475000
1!
1-
1/
0%
#480000
0!
0-
0/
1%
#485000
1!
1-
1/
0%
#490000
0!
0-
0/
1%
#495000
1!
1-
1/
0%
#500000
0!
0-
0/
1%
#505000
1!
1-
1/
0%
#510000
0!
0-
0/
1%
#515000
1!
1-
1/
0%
#520000
0!
0-
0/
1%
#525000
1!
1-
1/
0%
#530000
0!
0-
0/
1%
#535000
1!
1-
1/
0%
#540000
0!
0-
0/
1%
#545000
1!
1-
1/
0%
#550000
0!
0-
0/
1%
#555000
1!
1-
1/
0%
#560000
0!
0-
0/
1%
#565000
1!
1-
1/
0%
#570000
0!
0-
0/
1%
#575000
1!
1-
1/
0%
#580000
0!
0-
0/
1%
#585000
1!
1-
1/
0%
#590000
0!
0-
0/
1%
#595000
1!
1-
1/
0%
#600000
0!
0-
0/
1%
#605000
1!
1-
1/
0%
#610000
0!
0-
0/
1%
#615000
1!
1-
1/
0%
#620000
0!
0-
0/
1%
#625000
1!
1-
1/
0%
#630000
0!
0-
0/
1%
#635000
1!
1-
1/
0%
#640000
0!
0-
0/
1%
#645000
1!
1-
1/
0%
#650000
0!
0-
0/
1%
#655000
1!
1-
1/
0%
#660000
0!
0-
0/
1%
#665000
1!
1-
1/
0%
#670000
0!
0-
0/
1%
#675000
1!
1-
1/
0%
#680000
0!
0-
0/
1%
#685000
1!
1-
1/
0%
#690000
0!
0-
0/
1%
#695000
1!
1-
1/
0%
#700000
1#
0!
1,
0-
0/
1%
10
13
#705000
1!
1-
1/
0%
14
12
15
03
#710000
0!
0-
0/
1%
#715000
1!
1-
1/
0%
16
04
17
05
#720000
0!
0-
0/
1%
#725000
1!
1-
1/
0%
18
06
#730000
0!
0-
0/
1%
#735000
1!
1-
1/
0%
#740000
0#
0!
0,
0-
0/
1%
07
19
#745000
1!
1-
1/
0%
1:
08
1;
09
#750000
0!
0-
0/
1%
#755000
1!
1-
1/
0%
1<
0:
00
0;
#760000
0!
0-
0/
1%
#765000
1!
1-
1/
0%
0<
02
#770000
1#
0!
1,
0-
0/
1%
10
13
#775000
1!
1-
1/
0%
14
12
15
03
#780000
0!
0-
0/
1%
#785000
1!
1-
1/
0%
16
04
17
05
#790000
0!
0-
0/
1%
#795000
1!
1-
1/
0%
18
06
#800000
0#
0!
0,
0-
0/
1%
07
19
#805000
1!
1-
1/
0%
1:
08
1;
09
#810000
0!
0-
0/
1%
#815000
1!
1-
1/
0%
1<
0:
00
0;
#820000
1#
0!
1,
0-
0/
1%
10
1=
#825000
1!
1-
1/
0%
1>
0<
15
0=
#830000
0#
0!
0,
0-
0/
1%
05
1?
#835000
1!
1-
1/
0%
0>
1@
00
0?
1$
#840000
1#
0!
1,
0-
0/
1%
10
13
#845000
1!
1-
1/
0%
14
0@
15
03
0$
#850000
0!
0-
0/
1%
#855000
1!
1-
1/
0%
16
04
17
05
#860000
0!
0-
0/
1%
#865000
1!
1-
1/
0%
18
06
#870000
0#
0!
0,
0-
0/
1%
07
19
#875000
1!
1-
1/
0%
1:
08
1;
09
#880000
0!
0-
0/
1%
#885000
1!
1-
1/
0%
1<
0:
00
0;
#890000
1#
0!
1,
0-
0/
1%
10
1=
#895000
1!
1-
1/
0%
1>
0<
15
0=
#900000
0#
0!
0,
0-
0/
1%
05
1?
#905000
1!
1-
1/
0%
0>
1@
00
0?
1$
#910000
0!
0-
0/
1%
#915000
1!
1-
1/
0%
02
0@
0$
#920000
0!
0-
0/
1%
#925000
1!
1-
1/
0%
#930000
0!
0-
0/
1%
#935000
1!
1-
1/
0%
#940000
0!
0-
0/
1%
#945000
1!
1-
1/
0%
#950000
0!
0-
0/
1%
#955000
1!
1-
1/
0%
#960000
0!
0-
0/
1%
#965000
1!
1-
1/
0%
#970000
0!
0-
0/
1%
#975000
1!
1-
1/
0%
#980000
0!
0-
0/
1%
#985000
1!
1-
1/
0%
#990000
0!
0-
0/
1%
#995000
1!
1-
1/
0%
