大一下/网安数字逻辑与数字系统/Code/2.3/simulation/qsim/bupt.msim.vcd
$comment
	File created using the following command:
		vcd file bupt.msim.vcd -direction
$end
$date
	Sun Jun 02 11:52:02 2024
$end
$version
	ModelSim Version 10.1d
$end
$timescale
	1ps
$end
$scope module Fulladder_vlg_vec_tst $end
$var reg 1 ! A $end
$var reg 1 " B $end
$var reg 1 # Cin $end
$var wire 1 $ Cout $end
$var wire 1 % S $end
$var wire 1 & sampler $end
$scope module i1 $end
$var wire 1 ' gnd $end
$var wire 1 ( vcc $end
$var wire 1 ) unknown $end
$var tri1 1 * devclrn $end
$var tri1 1 + devpor $end
$var tri1 1 , devoe $end
$var wire 1 - ~QUARTUS_CREATED_GND~I_combout $end
$var wire 1 . A~input_o $end
$var wire 1 / B~input_o $end
$var wire 1 0 Cin~input_o $end
$var wire 1 1 S~0_combout $end
$var wire 1 2 Cout~0_combout $end
$upscope $end
$upscope $end
$enddefinitions $end
#0
$dumpvars
1!
1"
1#
1$
1%
x&
0'
1(
x)
1*
1+
1,
0-
1.
1/
10
11
12
$end
#10000
0!
0#
0.
00
0&
02
0$
#20000
0"
1!
0/
1.
1&
#30000
1#
1"
0!
10
1/
0.
0&
01
12
0%
1$
#40000
0"
0/
1&
11
02
1%
0$
#50000
1!
1"
1.
1/
0&
12
1$
#60000
0"
0/
1&
01
0%
#70000
0#
0!
00
0.
0&
02
0$
#80000
1"
1!
1/
1.
1&
12
1$
#90000
0"
0!
0/
0.
0&
02
0$
#100000
1"
1!
1/
1.
1&
12
1$
#110000
1#
0!
10
0.
0&
#120000
0"
1!
0/
1.
1&
#140000
1"
1/
0&
11
1%
#170000
0#
0!
00
0.
1&
02
0$
#180000
0"
0/
0&
01
0%
#190000
1#
1!
1"
10
1.
1/
1&
11
12
1%
1$
#200000
0"
0/
0&
01
0%
#210000
0#
00
1&
11
02
1%
0$
#220000
0!
1#
0.
10
0&
#230000
1"
1!
1/
1.
1&
12
1$
#240000
0#
0"
00
0/
0&
02
0$
#250000
1#
10
1&
01
12
0%
1$
#260000
0#
00
0&
11
02
1%
0$
#270000
0!
1#
0.
10
1&
#280000
1"
0#
1/
00
0&
#290000
0"
0/
1&
01
0%
#300000
1!
1#
1.
10
0&
12
1$
#330000
1"
0#
1/
00
1&
#340000
0!
1#
0.
10
0&
#350000
1!
0#
1.
00
1&
#360000
0"
0!
0/
0.
0&
02
0$
#370000
1"
1!
1/
1.
1&
12
1$
#390000
1#
0"
10
0/
0&
#400000
0#
1"
00
1/
1&
#410000
0!
0.
0&
11
02
1%
0$
#430000
1#
10
1&
01
12
0%
1$
#440000
0#
00
0&
11
02
1%
0$
#450000
0"
1!
0/
1.
1&
#470000
0!
0.
0&
01
0%
#480000
1!
1.
1&
11
1%
#490000
0!
0.
0&
01
0%
